{
  "title": "Class Instructors",
  "model": "CourseClassInstructors.availableCourseClassInstructors",
  "searchExpression":"(indexof(courseClass/course/displayCode, '${text}') ge 0 or indexof(courseClass/title, '${text}') ge 0 or indexof(instructor/department/abbreviation, '${text}') ge 0 or indexof(instructor/category, '${text}') ge 0 or indexof(instructor/familyName, '${text}') ge 0 or indexof(instructor/givenName, '${text}') ge 0 or indexof(instructor/email, '${text}') ge 0))",
  "columns": [
    {
      "name": "id",
      "property": "id",
      "formatter": "ActionLinkFormatter",
      "actions": [
        {
          "title": "Events.newSimpleEvent",
          "formatOptions": {
            "commands": [
              ".",
              "${encodeURIComponent(id)}",
              "add"
            ]
          }
        },
        {
          "title": "Events.newRecursiveEvent",
          "formatOptions": {
            "commands": [
              ".",
              "${encodeURIComponent(id)}",
              "addRecursive"
            ]
          }
        },
        {
          "title": "Events.Classes.ClassEvents",
          "formatOptions": {
            "commands": [
              "../",
              "events",
              "list"
            ],
            "navigationExtras": {
              "queryParams": {
                "courseClass": "${courseClassId}"
              }
            }
          }
        },
        {
          "title": "Events.Classes.InstructorEvents",
          "formatOptions": {
            "commands": [
              "../",
              "events",
              "list"
            ],
            "navigationExtras": {
              "queryParams": {
                "performer": "${instructorUserName}"
              }
            }
          }
        }
      ],
      "sortable": false
    },
    {
      "name": "courseClass/course/displayCode",
      "property": "courseClassDisplayCode",
      "title": "Events.Classes.DisplayCode"
    },
    {
      "name": "courseClass/title",
      "property": "courseClassTitle",
      "title": "Events.Title"
    },
    {
      "name": "courseClass/period/name",
      "property": "courseClassPeriod",
      "title": "Events.Classes.Period"
    },
    {
      "name": "courseClass/statistic/registrationType",
      "property": "registrationType",
      "title": "Events.Classes.RegistrationType",
      "formatters": [
        {
          "formatter": "TranslationFormatter",
          "formatString": "RegistrationTypes.${value}"
        }
      ]
    },
    {
      "name":"instructor/familyName",
      "property": "familyName",
      "title":"Events.Instructors.FullName",
      "formatter": "TemplateFormatter",
      "formatString": "${familyName} ${givenName}"
    },
    {
      "name":"instructor/givenName",
      "property": "givenName",
      "title":"Events.Instructors.GivenName",
      "hidden": true
    },
    {
      "name":"instructor/department/abbreviation",
      "property": "departmentName",
      "title":"Events.Instructors.Department"
    },
    {
      "name": "instructor/department/id",
      "property": "departmentId",
      "title": "Events.Instructors.Department",
      "hidden": true
    },
    {
      "name":"instructor/category",
      "property": "category",
      "title":"Events.Instructors.Category"
    },
    {
      "name":"instructor/email",
      "property": "email",
      "title":"Events.Instructors.Email"
    },
    {
      "name":"teachingHours",
      "property": "teachingHours",
      "title":"Events.Instructors.TeachingHours"
    },
    {
      "name":"instructor/status/alternateName",
      "property": "status",
      "title":"Events.Instructors.Status",
      "formatter": "TranslationFormatter",
      "formatString": "Events.Instructors.Statuses.${value}"

    },
    {
      "name":"role/alternateName",
      "property": "role",
      "title":"Events.Instructors.Role",
      "formatter": "TranslationFormatter",
      "formatString": "Events.Instructors.Roles.${value}"

    },
    {
      "name": "courseClass",
      "property": "courseClassId",
      "hidden": true
    },
    {
      "name": "instructor/id",
      "property": "instructorId",
      "hidden": true
    },
    {
      "name": "instructor/user/alternateName",
      "property": "instructorUserName",
      "hidden": true
    }
  ],
  "defaults":{
  },
  "criteria": [
    {
      "name": "courseClassDisplayCode",
      "filter": "(indexof(courseClass/course/displayCode, '${value}') ge 0 )",
      "type": "text"
    },
    {
      "name": "registrationType",
      "filter": "(courseClass/statistic/registrationType eq '${value}')",
      "type": "text"
    },
    {
      "name": "courseClassTitle",
      "filter": "(indexof(courseClass/title, '${value}') ge 0 )",
      "type": "text"
    },
    {
      "name": "courseClassPeriod",
      "filter": "(courseClass/period/id eq '${value}')",
      "type": "text"
    },
    {
      "name": "instructorName",
      "filter": "(indexof(instructor/familyName, '${value}') ge 0 or indexof(instructor/givenName, '${value}') ge 0)",
      "type": "text"
    },
    {
      "name": "category",
      "filter": "(indexof(instructor/category, '${value}') ge 0)",
      "type": "text"
    },
    {
      "name": "status",
      "filter": "(instructor/status eq '${value}')",
      "type": "text"
    },
    {
      "name": "role",
      "filter": "(role eq '${value}')",
      "type": "text"
    },
    {
      "name": "courseClassID",
      "filter": "(courseClass eq '${value}')",
      "type": "text"
    }
  ]
}
