{
  "model": "TimetableEvents",
  "settings": {
    "i18n": {
      "el": {
        "Start Date": "Από",
        "End Date": "Έως",
        "Title": "Τίτλος",
        "Description": "Περιγραφή",
        "Timetable Details": "Στοιχεία Ημερολογίου",
        "Start time cannot succeed end time.": "Η ώρα έναρξης δεν μπορεί να έπεται της ώρας λήξης.",
        "End time cannot precede start time.": "Η ώρα λήξης δεν μπορεί να προηγείται της ώρας έναρξης.",
        "Start date cannot succeed end date.": "Η ημερομηνία έναρξης δεν μπορεί να έπεται της ημερομηνία λήξης.",
        "End date cannot precede start date.": "Η ημερομηνία λήξης δεν μπορεί να προηγείται της ημερομηνία έναρξης.",
        "Available Places": "Επιτρεπόμενες Τοποθεσίες",
        "Available Event Types": "Επιτρεπόμενοι Τύποι Γεγονότων",
        "Academic Periods": "Ακαδημαϊκές Περίοδοι",
        "Exam Periods": "Εξεταστικές Περίοδοι",
        "Select the academic year associated with this timetable.": "Επιλέξτε το ακαδημαϊκο το οποίο αφορά το ημερολόγιο.",
        "Select the academic periods associated with this timetable.": "Επιλέξτε τις ακαδημαϊκές περιόδους τις οποίες αφορά το ημερολόγιο.",
        "Select the exam periods associated with this timetable.": "Επιλέξτε τις εξεταστικές περιόδους τις οποίες αφορά το ημερολόγιο.",
        "Select the event types of the timetable. These options represent the different types of events that you can create.": "Επιλέξτε τους τύπους γεγονότων που μπορείτε να δημιουργήσετε για το ημερολόγιο.",
        "Select the locations of the timetable. These options represent the different types of events that you can create.": "Επιλέξτε τις τοποθεσιες για τις οποίες μπορείτε να δημιουργήσετε γεγονότα για το ημερολόγιο."
      }
    }
  },
  "components": [
    {
      "type": "fieldset",
      "legend": "Timetable Details",
      "components": [
        {
          "customClass": "text-dark",
          "hideLabel": true,
          "type": "columns",
          "input": false,
          "columns": [
            {
              "components": [
                {
                  "label": "Start Date",
                  "tableView": false,
                  "format": "dd-MM-yyyy",
                  "enableTime": false,
                  "validate": {
                    "required": true,
                    "custom": "valid = !data.endDate || (input && moment(input).isBefore(data.endDate));"
                  },
                  "errors": {
                    "custom": "Start date cannot succeed end date."
                  },
                  "key": "startDate",
                  "type": "datetime",
                  "input": true,
                  "widget": {
                    "type": "calendar"
                  }
                }
              ],
              "width": 4
            },
            {
              "components": [
                {
                  "label": "End Date",
                  "format": "dd-MM-yyyy",
                  "tableView": false,
                  "enableTime": false,
                  "validate": {
                    "required": true,
                    "custom": "valid = !data.startDate || (input && moment(data.startDate).isBefore(input));"
                  },
                  "errors": {
                    "custom": "End date cannot precede start date."
                  },
                  "key": "endDate",
                  "type": "datetime",
                  "input": true,
                  "widget": {
                    "type": "calendar"
                  }
                }
              ],
              "width": 4
            },
            {
              "components": [
                {
                  "label": "Title",
                  "widget": {
                    "type": "input"
                  },
                  "validate": {
                    "required": true
                  },
                  "key": "name",
                  "type": "textfield",
                  "input": true
                }
              ],
              "width": 4
            },
            {
              "components": [
                {
                  "label": "Academic Year",
                  "description": "Select the academic year associated with this timetable.",
                  "widget": "choicesjs",
                  "tableView": true,
                  "template": "{{item.name}}",
                  "dataType": "object",
                  "idPath": "id",
                  "dataSrc": "url",
                  "data": {
                    "url": "AcademicYears?$select=name,id&$orderby=name desc",
                    "headers": []
                  },
                  "selectThreshold": 0.3,
                  "validate": {
                    "required": true
                  },
                  "key": "academicYear",
                  "type": "select",
                  "selectValues": "value",
                  "input": true
                }
              ],
              "width": 4
            },
            {
              "components": [
                {
                  "label": "Academic Periods",
                  "description": "Select the academic periods associated with this timetable.",
                  "widget": "choicesjs",
                  "tableView": true,
                  "multiple": true,
                  "template": "{{item.name}}",
                  "dataType": "object",
                  "idPath": "id",
                  "dataSrc": "url",
                  "data": {
                    "url": "AcademicPeriods?$select=name,id",
                    "headers": []
                  },
                  "selectThreshold": 0.3,
                  "validate": {
                    "required": true
                  },
                  "key": "academicPeriods",
                  "type": "select",
                  "selectValues": "value",
                  "input": true
                }
              ],
              "width": 4
            },
            {
              "components": [],
              "width": 4
            },
            {
              "components": [
                {
                  "label": "Available Event Types",
                  "description": "Select the event types of the timetable. These options represent the different types of events that you can create.",
                  "widget": "choicesjs",
                  "tableView": true,
                  "multiple": true,
                  "template": "{{item.name}}",
                  "dataType": "object",
                  "idPath": "id",
                  "dataSrc": "url",
                  "data": {
                    "url": "EventTypes?$select=name,alternateName,id",
                    "headers": []
                  },
                  "selectThreshold": 0.3,
                  "validate": {
                    "required": true
                  },
                  "key": "availableEventTypes",
                  "type": "select",
                  "selectValues": "value",
                  "input": true
                }
              ],
              "width": 4
            },
            {
              "components": [
                {
                  "label": "Exam Periods",
                  "description": "Select the exam periods associated with this timetable.",
                  "widget": "choicesjs",
                  "tableView": true,
                  "multiple": true,
                  "template": "{{item.name}}",
                  "dataType": "object",
                  "idPath": "id",
                  "dataSrc": "url",
                  "data": {
                    "url": "ExamPeriods?$select=name,id",
                    "headers": []
                  },
                  "selectThreshold": 0.3,
                  "validate": {
                    "required": true
                  },
                  "key": "examPeriods",
                  "type": "select",
                  "selectValues": "value",
                  "input": true,
                  "customConditional": "show = data && data.availableEventTypes && data.availableEventTypes.find(type => type.alternateName === 'CourseExamEvent')"
                }
              ],
              "width": 4
            },
            {
              "components": [
                {
                  "label": "Available Places",
                  "description": "Select the locations of the timetable. These options represent the different types of events that you can create.",
                  "widget": "choicesjs",
                  "tableView": true,
                  "multiple": true,
                  "template": "{{item.fullName || item.name}}",
                  "dataType": "object",
                  "idPath": "id",
                  "dataSrc": "url",
                  "data": {
                    "url": "Places/flattened?$filter=departments/id eq '{{data.organizer}}'&$top=-1",
                    "headers": []
                  },
                  "selectThreshold": 0.3,
                  "validate": {
                    "required": true
                  },
                  "key": "availablePlaces",
                  "type": "select",
                  "input": true
                }
              ],
              "width": 8
            }
          ]
        }
      ]
    },
    {
      "label": "Description",
      "tableView": true,
      "validate": {
        "required": false,
        "maxLength": 512
      },
      "key": "description",
      "type": "textarea",
      "rows": 3,
      "input": true
    },
    {
      "hidden": true,
      "tableView": true,
      "key": "organizer",
      "type": "textfield",
      "input": true
    },
    {
      "type": "button",
      "label": "Submit",
      "key": "submit",
      "disableOnInvalid": true,
      "input": true,
      "hidden": false
    }
  ]
}